INDEX VERSION 1.131+D:\Coc Coc Download\HOC JAVA\.metadata\.plugins\org.eclipse.jdt.core
940060837.index
1505475331.index
1662959155.index
1798566844.index
1885572059.index
1901982171.index
3385501238.index
3576777806.index
2984040028.index
3224871682.index
2185667117.index
1848287269.index
1665871151.index
1561099537.index
3686162722.index
1146975194.index
3787902398.index
586514352.index
2292794536.index
3713443887.index
1393164717.index
3359640247.index
2285095886.index
2865927041.index
37888514.index
172457371.index
1181974968.index
